Programming with R {dplyr} - As I Understand It!!
…
my_filter_criteria_with_OR <- c("sales > 8000 | sales < 50", "year > 2010")

# NOTE: OR criteria must be a single string separated by pipe '|' as in example below.
my_filter_strings(txhousing, my_filter_criteria_with_OR)

# A tibble: 315 x 9
   city      year month sales   volume median listings inventory  date
   <chr>    <int> <int> <dbl>    <dbl>  <dbl>    <dbl>     <dbl> <dbl>
 1 Brownsv~  2011     1    48   4.97e6  83300      784      12.6 2011 
 2 Brownsv~  2011     2    47   5.56e6 101400      776      12.7 2011.
 3 Brownsv~  2011     7    47   4.81e6  91200      749      13.1 2012.
 4 Brownsv~  2011    12    39   4.20e6  86800      726      12.4 2012.
 5 Brownsv~  2012     1    43   3.89e6  85000      791      13.6 2012 
 6 Brownsv~  2012     3    27   2.98e6  93800      734      13.3 2012.
 7 Brownsv~  2012    11    41   5.12e6  99000      807      14   2013.
 8 Brownsv~  2013    11    38   4.82e6 108000      859      13.4 2014.
 9 Brownsv~  2015     1    41   5.40e6  97000      733      10.7 2015 
10 Galvest~  2011     1    43   8.88e6 170000     1015      13.7 2011 
11 Galvest~  2012     1    39   5.82e6 122500     1004      13.3 2012 
12 Galvest~  2013     1    45   1.02e7 165000      792       9.7 2013 
13 Galvest~  2014     1    48   9.97e6 176700      718       8.4 2014 
14 Galvest~  2015     1    43   1.08e7 187500      575       5.8 2015 
15 Harling~  2011     4    36   5.35e6 133300      417       6.2 2011.
16 Harling~  2012    11    44   5.41e6 103300     1635      22.4 2013.
17 Harling~  2013     1    44   5.51e6  90000     1593      22.3 2013 
18 Houston   2013     5  8439   2.12e9 186100    20526       3.3 2013.
19 Houston   2013     7  8468   2.17e9 187800    21497       3.3 2014.
20 Houston   2013     8  8155   2.08e9 186700    21366       3.3 2014.
21 Houston   2014     6  8391   2.34e9 211200    19725       2.9 2014.
22 Houston   2014     7  8391   2.28e9 199700    20214       3   2014.
23 Houston   2014     8  8167   2.20e9 202400    20007       2.9 2015.
24 Houston   2015     6  8449   2.49e9 222400    22311       3.2 2015.
25 Houston   2015     7  8945   2.57e9 217600    23875       3.4 2016.
26 Kerrvil~  2011     1    31   7.11e6 170000      777      22.2 2011 
27 Kerrvil~  2011     2    22   3.70e6 140000      788      22.5 2011.
28 Kerrvil~  2011     3    27   4.65e6 134000      842      24.5 2011.
29 Kerrvil~  2011     4    35   5.62e6 143300      856      24.8 2011.
30 Kerrvil~  2011     5    39   6.60e6 155000      875      25.5 2011.
# ... with 285 more rows
…
tx_summary <- function(df, grp_col, sum_col) {
  df %>% 
    group_by(city, {{grp_col}}) %>% 
    summarise("total_{{sum_col}}" := sum({{sum_col}}, na.rm = TRUE), .groups = 'drop')
}

Using these 2 functions, we can now create multiple summary tables

small_df_with_date_cols <- small_df %>% create_ymq(date_col = date)

# Annual Sales per city
small_df_with_date_cols %>% tx_summary(grp_col = Year, sum_col = sales)

# A tibble: 736 x 3
   city      Year total_sales
   <chr>    <dbl>       <dbl>
 1 Abilene   2000        1375
 2 Abilene   2001        1431
 3 Abilene   2002        1516
 4 Abilene   2003        1632
 5 Abilene   2004        1830
 6 Abilene   2005        1977
 7 Abilene   2006        1997
 8 Abilene   2007        2003
 9 Abilene   2008        1651
10 Abilene   2009        1634
11 Abilene   2010        1590
12 Abilene   2011        1719
13 Abilene   2012        2016
14 Abilene   2013        2171
15 Abilene   2014        2164
16 Abilene   2015        1435
17 Amarillo  2000        2076
18 Amarillo  2001        2343
19 Amarillo  2002        2249
20 Amarillo  2003        2828
21 Amarillo  2004        3057
22 Amarillo  2005        3113
23 Amarillo  2006        3445
24 Amarillo  2007        3300
25 Amarillo  2008        3009
26 Amarillo  2009        2797
27 Amarillo  2010        2556
28 Amarillo  2011        2705
29 Amarillo  2012        2933
30 Amarillo  2013        3057
# ... with 706 more rows

# Half Yearly volumes per city
small_df_with_date_cols %>% tx_summary(grp_col = yHalf, sum_col = volume)

# A tibble: 1,472 x 3
   city    yHalf total_volume
   <chr>   <dbl>        <dbl>
 1 Abilene 2000.     55400000
 2 Abilene 2000.     53175000
 3 Abilene 2001.     55795000
 4 Abilene 2001.     58570000
 5 Abilene 2002.     55305000
 6 Abilene 2002.     63370000
 7 Abilene 2003.     58175000
 8 Abilene 2003.     77500000
 9 Abilene 2004.     74205000
10 Abilene 2004.     85465000
11 Abilene 2005.     94980000
12 Abilene 2005.    103875000
13 Abilene 2006.    111770000
14 Abilene 2006.    115760000
15 Abilene 2007.    121955000
16 Abilene 2007.    110107585
17 Abilene 2008.    101306055
18 Abilene 2008.     91214280
19 Abilene 2009.     95990057
20 Abilene 2009.    106367699
21 Abilene 2010.    100830738
22 Abilene 2010.     96626206
23 Abilene 2011.    101595481
24 Abilene 2011.    118570348
25 Abilene 2012.    124258849
26 Abilene 2012.    141298045
27 Abilene 2013.    140574147
28 Abilene 2013.    149706157
29 Abilene 2014.    141037003
30 Abilene 2014.    169948408
# ... with 1,442 more rows

# Quarterly Sales per city
small_df_with_date_cols %>% tx_summary(grp_col = yQtr, sum_col = sales)

# A tibble: 2,898 x 3
   city     yQtr total_sales
   <chr>   <dbl>       <dbl>
 1 Abilene 2000.         300
 2 Abilene 2000.         395
 3 Abilene 2000.         387
 4 Abilene 2000.         293
 5 Abilene 2001.         305
 6 Abilene 2001.         394
 7 Abilene 2001.         401
 8 Abilene 2001.         331
 9 Abilene 2002.         295
10 Abilene 2002.         425
11 Abilene 2002.         447
12 Abilene 2002.         349
13 Abilene 2003.         298
14 Abilene 2003.         399
15 Abilene 2003.         511
16 Abilene 2003.         424
17 Abilene 2004.         385
18 Abilene 2004.         509
19 Abilene 2004.         508
20 Abilene 2004.         428
21 Abilene 2005.         419
22 Abilene 2005.         577
23 Abilene 2005.         558
24 Abilene 2005.         423
25 Abilene 2006.         414
26 Abilene 2006.         576
27 Abilene 2006.         548
28 Abilene 2006.         459
29 Abilene 2007.         484
30 Abilene 2007.         617
# ... with 2,868 more rows

# Monthly Volumes per city
small_df_with_date_cols %>% tx_summary(grp_col = yMonth, sum_col = volume)

# A tibble: 8,602 x 3
   city    yMonth total_volume
   <chr>    <dbl>        <dbl>
 1 Abilene  2000.      5380000
 2 Abilene  2000.      6505000
 3 Abilene  2000.      9285000
 4 Abilene  2000.      9730000
 5 Abilene  2000.     10590000
 6 Abilene  2000.     13910000
 7 Abilene  2000.     12635000
 8 Abilene  2000.     10710000
 9 Abilene  2000.      7615000
10 Abilene  2000.      7040000
11 Abilene  2000.      7890000
12 Abilene  2000.      7285000
13 Abilene  2001.      5730000
14 Abilene  2001.      8670000
15 Abilene  2001.      9550000
16 Abilene  2001.      8705000
17 Abilene  2001.     11850000
18 Abilene  2001.     11290000
19 Abilene  2001.     13175000
20 Abilene  2001.     11840000
21 Abilene  2001.      8395000
22 Abilene  2001.      9010000
23 Abilene  2001.      8955000
24 Abilene  2001.      7195000
25 Abilene  2002.      6530000
26 Abilene  2002.      6860000
27 Abilene  2002.      8385000
28 Abilene  2002.     10465000
29 Abilene  2002.     11465000
30 Abilene  2002.     11600000
# ... with 8,572 more rows
…
